EESchema Schematic File Version 4
EELAYER 30 0
EELAYER END
$Descr A4 11693 8268
encoding utf-8
Sheet 1 4
Title ""
Date ""
Rev ""
Comp ""
Comment1 ""
Comment2 ""
Comment3 ""
Comment4 ""
$EndDescr
$Comp
L DPsymbols:BS223 Q1
U 1 1 60B02525
P 9150 2100
F 0 "Q1" H 8922 2054 50  0000 R CNN
F 1 "BS223" H 8922 2145 50  0000 R CNN
F 2 "Package_TO_SOT_SMD:SOT-323_SC-70_Handsoldering" H 9350 2025 50  0001 L CIN
F 3 "https://www.tme.eu/Document/03a3073db45564372f9fa5ba65525383/BSS223PWH6327XTSA1-dte.pdf" H 9150 2100 50  0001 L CNN
	1    9150 2100
	1    0    0    1   
$EndComp
$Comp
L Transformer:TEZ1.5-D-1 TR1
U 1 1 60B0793E
P 1800 1300
F 0 "TR1" H 1800 1725 50  0000 C CNN
F 1 "TEZ1.5-D-1" H 1800 1634 50  0000 C CNN
F 2 "Transformer_THT:Transformer_Breve_TEZ-28x33" H 1800 950 50  0001 C CIN
F 3 "http://www.breve.pl/pdf/ANG/TEZ_ang.pdf" H 1800 1300 50  0001 C CNN
	1    1800 1300
	1    0    0    -1  
$EndComp
$Comp
L DPsymbols:ABS15 D1
U 1 1 60B0FA22
P 2750 1450
F 0 "D1" H 2950 1750 50  0000 L CNN
F 1 "ABS15" H 2950 1650 50  0000 L CNN
F 2 "Diode_SMD:Diode_Bridge_Diotec_ABS" H 2750 1450 50  0001 C CNN
F 3 "~" H 2750 1450 50  0001 C CNN
	1    2750 1450
	1    0    0    -1  
$EndComp
$Comp
L Device:R R1
U 1 1 60B1150E
P 2550 1100
F 0 "R1" V 2343 1100 50  0000 C CNN
F 1 "20" V 2434 1100 50  0000 C CNN
F 2 "Resistor_SMD:R_1206_3216Metric_Pad1.30x1.75mm_HandSolder" V 2480 1100 50  0001 C CNN
F 3 "~" H 2550 1100 50  0001 C CNN
	1    2550 1100
	0    1    1    0   
$EndComp
Wire Wire Line
	3050 1450 3100 1450
Wire Wire Line
	3100 1450 3550 1450
Connection ~ 3100 1450
Wire Wire Line
	2450 1450 2350 1450
Wire Wire Line
	3100 1450 3100 1550
$Comp
L Device:CP C1
U 1 1 60B12605
P 3100 1700
F 0 "C1" H 3218 1746 50  0000 L CNN
F 1 "250uF" H 3218 1655 50  0000 L CNN
F 2 "Capacitor_SMD:CP_Elec_8x10" H 3138 1550 50  0001 C CNN
F 3 "~" H 3100 1700 50  0001 C CNN
	1    3100 1700
	1    0    0    -1  
$EndComp
Wire Wire Line
	2350 1900 3100 1900
Wire Wire Line
	3100 1900 3100 1850
Wire Wire Line
	2350 1450 2350 1900
$Comp
L power:GND #PWR02
U 1 1 60B262EA
P 2350 2700
F 0 "#PWR02" H 2350 2450 50  0001 C CNN
F 1 "GND" H 2355 2527 50  0000 C CNN
F 2 "" H 2350 2700 50  0001 C CNN
F 3 "" H 2350 2700 50  0001 C CNN
	1    2350 2700
	1    0    0    -1  
$EndComp
Connection ~ 2350 1900
$Comp
L Connector_Generic:Conn_01x02 J1
U 1 1 60B2B9FE
P 600 1100
F 0 "J1" H 518 1317 50  0000 C CNN
F 1 "Conn_01x02" H 518 1226 50  0000 C CNN
F 2 "TerminalBlock_RND:TerminalBlock_RND_205-00001_1x02_P5.00mm_Horizontal" H 600 1100 50  0001 C CNN
F 3 "~" H 600 1100 50  0001 C CNN
	1    600  1100
	-1   0    0    -1  
$EndComp
$Comp
L power:VAC #PWR01
U 1 1 60B2E826
P 1300 1000
F 0 "#PWR01" H 1300 900 50  0001 C CNN
F 1 "VAC" H 1300 1275 50  0000 C CNN
F 2 "" H 1300 1000 50  0001 C CNN
F 3 "" H 1300 1000 50  0001 C CNN
	1    1300 1000
	1    0    0    -1  
$EndComp
Wire Wire Line
	1300 1000 1300 1100
Wire Wire Line
	1300 1100 1450 1100
Wire Wire Line
	1550 1200 1550 1500
Wire Wire Line
	1550 1500 1600 1500
Wire Wire Line
	2700 1100 2750 1100
Wire Wire Line
	2750 1100 2750 1150
Wire Wire Line
	2750 1750 2750 1800
Wire Wire Line
	2750 1800 2050 1800
Wire Wire Line
	2050 1800 2050 1500
Wire Wire Line
	2050 1500 2000 1500
$Comp
L power:+12V #PWR03
U 1 1 60B4CC18
P 3550 1350
F 0 "#PWR03" H 3550 1200 50  0001 C CNN
F 1 "+12V" H 3565 1523 50  0000 C CNN
F 2 "" H 3550 1350 50  0001 C CNN
F 3 "" H 3550 1350 50  0001 C CNN
	1    3550 1350
	1    0    0    -1  
$EndComp
Wire Wire Line
	3550 1450 3550 1350
$Comp
L Device:Battery BT1
U 1 1 60B9F708
P 10300 2350
F 0 "BT1" V 10545 2350 50  0000 C CNN
F 1 "Battery" V 10454 2350 50  0000 C CNN
F 2 "TerminalBlock_RND:TerminalBlock_RND_205-00001_1x02_P5.00mm_Horizontal" V 10300 2410 50  0001 C CNN
F 3 "~" V 10300 2410 50  0001 C CNN
	1    10300 2350
	0    -1   -1   0   
$EndComp
Wire Wire Line
	9250 2300 9250 2350
Wire Wire Line
	9250 2350 9350 2350
Wire Wire Line
	9650 2350 9800 2350
$Comp
L power:GND #PWR010
U 1 1 60BC6332
P 10500 3350
F 0 "#PWR010" H 10500 3100 50  0001 C CNN
F 1 "GND" H 10505 3177 50  0000 C CNN
F 2 "" H 10500 3350 50  0001 C CNN
F 3 "" H 10500 3350 50  0001 C CNN
	1    10500 3350
	1    0    0    -1  
$EndComp
Wire Wire Line
	10500 2350 10500 3300
$Comp
L Transistor_FET:BSS123 Q2
U 1 1 60BEB9A4
P 8750 2500
F 0 "Q2" H 8954 2546 50  0000 L CNN
F 1 "BSS123" H 8954 2455 50  0000 L CNN
F 2 "Package_TO_SOT_SMD:SOT-23" H 8950 2425 50  0001 L CIN
F 3 "http://www.diodes.com/assets/Datasheets/ds30366.pdf" H 8750 2500 50  0001 L CNN
	1    8750 2500
	1    0    0    -1  
$EndComp
Wire Wire Line
	8950 2100 8850 2100
Wire Wire Line
	8850 2100 8850 2300
$Comp
L Device:R R3
U 1 1 60C05815
P 6100 1700
F 0 "R3" H 6030 1654 50  0000 R CNN
F 1 "240" H 6030 1745 50  0000 R CNN
F 2 "Resistor_SMD:R_1206_3216Metric_Pad1.30x1.75mm_HandSolder" V 6030 1700 50  0001 C CNN
F 3 "~" H 6100 1700 50  0001 C CNN
	1    6100 1700
	-1   0    0    1   
$EndComp
$Comp
L power:GND #PWR09
U 1 1 60C1B642
P 8850 2800
F 0 "#PWR09" H 8850 2550 50  0001 C CNN
F 1 "GND" H 8855 2627 50  0000 C CNN
F 2 "" H 8850 2800 50  0001 C CNN
F 3 "" H 8850 2800 50  0001 C CNN
	1    8850 2800
	1    0    0    -1  
$EndComp
Wire Wire Line
	8850 2700 8850 2800
$Comp
L Regulator_Linear:LM317_TO-263 U3
U 1 1 60C4E232
P 5650 1500
F 0 "U3" H 5650 1742 50  0000 C CNN
F 1 "LM317_TO-263" H 5650 1651 50  0000 C CNN
F 2 "Package_TO_SOT_SMD:TO-263-2" H 5650 1750 50  0001 C CIN
F 3 "http://www.ti.com/lit/ds/symlink/lm317.pdf" H 5650 1500 50  0001 C CNN
	1    5650 1500
	1    0    0    -1  
$EndComp
Wire Wire Line
	8850 1950 8850 2100
Connection ~ 8850 2100
$Comp
L power:+12V #PWR07
U 1 1 60C5E5CD
P 5200 1100
F 0 "#PWR07" H 5200 950 50  0001 C CNN
F 1 "+12V" H 5215 1273 50  0000 C CNN
F 2 "" H 5200 1100 50  0001 C CNN
F 3 "" H 5200 1100 50  0001 C CNN
	1    5200 1100
	1    0    0    -1  
$EndComp
Wire Wire Line
	5350 1500 5200 1500
Wire Wire Line
	5200 1500 5200 1100
Wire Wire Line
	5950 1500 6100 1500
Wire Wire Line
	6100 1550 6100 1500
Connection ~ 6100 1500
Wire Wire Line
	6100 1500 6550 1500
$Comp
L Device:R R2
U 1 1 60C867B5
P 5650 2150
F 0 "R2" H 5720 2196 50  0000 L CNN
F 1 "680" H 5720 2105 50  0000 L CNN
F 2 "Resistor_SMD:R_1206_3216Metric_Pad1.30x1.75mm_HandSolder" V 5580 2150 50  0001 C CNN
F 3 "~" H 5650 2150 50  0001 C CNN
	1    5650 2150
	1    0    0    -1  
$EndComp
$Comp
L Device:R_POT RV1
U 1 1 60C8E14E
P 5650 2600
F 0 "RV1" H 5580 2554 50  0000 R CNN
F 1 "1k" H 5580 2645 50  0000 R CNN
F 2 "DPfootprints:Potentiometer_Runtron_RM-065_Vertical" H 5650 2600 50  0001 C CNN
F 3 "~" H 5650 2600 50  0001 C CNN
	1    5650 2600
	-1   0    0    1   
$EndComp
Wire Wire Line
	5650 2450 5650 2350
Wire Wire Line
	5500 2600 5450 2600
Wire Wire Line
	5450 2600 5450 2350
Wire Wire Line
	5450 2350 5650 2350
Connection ~ 5650 2350
Wire Wire Line
	5650 2350 5650 2300
Wire Wire Line
	5650 1800 5650 1850
Wire Wire Line
	6100 1850 5650 1850
Connection ~ 5650 1850
Wire Wire Line
	5650 1850 5650 2000
$Comp
L Device:CP C4
U 1 1 60CA8733
P 5200 1800
F 0 "C4" H 5318 1846 50  0000 L CNN
F 1 "100nF" H 5318 1755 50  0000 L CNN
F 2 "Capacitor_SMD:C_1206_3216Metric_Pad1.33x1.80mm_HandSolder" H 5238 1650 50  0001 C CNN
F 3 "~" H 5200 1800 50  0001 C CNN
	1    5200 1800
	1    0    0    -1  
$EndComp
$Comp
L Device:CP C5
U 1 1 60CA8F14
P 6550 1750
F 0 "C5" H 6668 1796 50  0000 L CNN
F 1 "1uF" H 6668 1705 50  0000 L CNN
F 2 "Capacitor_SMD:C_1206_3216Metric_Pad1.33x1.80mm_HandSolder" H 6588 1600 50  0001 C CNN
F 3 "~" H 6550 1750 50  0001 C CNN
	1    6550 1750
	1    0    0    -1  
$EndComp
$Comp
L power:GND #PWR08
U 1 1 60CAA9B9
P 5650 3350
F 0 "#PWR08" H 5650 3100 50  0001 C CNN
F 1 "GND" H 5655 3177 50  0000 C CNN
F 2 "" H 5650 3350 50  0001 C CNN
F 3 "" H 5650 3350 50  0001 C CNN
	1    5650 3350
	1    0    0    -1  
$EndComp
Wire Wire Line
	5650 3300 5650 3350
Connection ~ 5650 3300
Wire Wire Line
	6550 1600 6550 1500
Connection ~ 6550 1500
Wire Wire Line
	5200 1650 5200 1500
Connection ~ 5200 1500
Wire Wire Line
	5200 3300 5650 3300
Text GLabel 7150 1500 2    50   Output ~ 0
V_Batt_Charge
Wire Wire Line
	6550 1500 6950 1500
Text GLabel 8600 1450 0    50   Input ~ 0
V_Batt_Charge
$Comp
L Device:R R4
U 1 1 60D2CF33
P 8850 1800
F 0 "R4" H 8780 1754 50  0000 R CNN
F 1 "10k" H 8780 1845 50  0000 R CNN
F 2 "Resistor_SMD:R_1206_3216Metric_Pad1.30x1.75mm_HandSolder" V 8780 1800 50  0001 C CNN
F 3 "~" H 8850 1800 50  0001 C CNN
	1    8850 1800
	-1   0    0    1   
$EndComp
$Comp
L Device:R R5
U 1 1 60D2FAB3
P 9500 2350
F 0 "R5" V 9707 2350 50  0000 C CNN
F 1 "47" V 9616 2350 50  0000 C CNN
F 2 "Resistor_SMD:R_1206_3216Metric_Pad1.30x1.75mm_HandSolder" V 9430 2350 50  0001 C CNN
F 3 "~" H 9500 2350 50  0001 C CNN
	1    9500 2350
	0    -1   -1   0   
$EndComp
Wire Wire Line
	8600 1450 8850 1450
Wire Wire Line
	9250 1450 9250 1900
Wire Wire Line
	8850 1650 8850 1450
Connection ~ 8850 1450
Wire Wire Line
	8850 1450 9250 1450
Text GLabel 8450 2500 0    50   Input ~ 0
Batt_Charge_Enable
Wire Wire Line
	8550 2500 8450 2500
$Comp
L power:+BATT #PWR012
U 1 1 60D40E8B
P 9800 2100
F 0 "#PWR012" H 9800 1950 50  0001 C CNN
F 1 "+BATT" H 9815 2273 50  0000 C CNN
F 2 "" H 9800 2100 50  0001 C CNN
F 3 "" H 9800 2100 50  0001 C CNN
	1    9800 2100
	1    0    0    -1  
$EndComp
Connection ~ 9800 2350
Wire Wire Line
	9800 2100 9800 2350
$Comp
L Device:R R6
U 1 1 60D47A0A
P 9800 2650
F 0 "R6" H 9730 2604 50  0000 R CNN
F 1 "prec10k" H 9730 2695 50  0000 R CNN
F 2 "Resistor_SMD:R_1206_3216Metric_Pad1.30x1.75mm_HandSolder" V 9730 2650 50  0001 C CNN
F 3 "~" H 9800 2650 50  0001 C CNN
	1    9800 2650
	-1   0    0    1   
$EndComp
$Comp
L Device:R R7
U 1 1 60D48265
P 9800 3100
F 0 "R7" H 9730 3054 50  0000 R CNN
F 1 "prec5k1" H 9730 3145 50  0000 R CNN
F 2 "Resistor_SMD:R_1206_3216Metric_Pad1.30x1.75mm_HandSolder" V 9730 3100 50  0001 C CNN
F 3 "~" H 9800 3100 50  0001 C CNN
	1    9800 3100
	-1   0    0    1   
$EndComp
Wire Wire Line
	9800 2800 9800 2850
Wire Wire Line
	10500 3300 9800 3300
Wire Wire Line
	9800 3300 9800 3250
Connection ~ 10500 3300
Wire Wire Line
	10500 3300 10500 3350
Wire Wire Line
	9800 2500 9800 2350
Text GLabel 9700 2850 0    50   Output ~ 0
V_Batt_Measure
Wire Wire Line
	9700 2850 9800 2850
Connection ~ 9800 2850
Wire Wire Line
	9800 2850 9800 2950
$Comp
L power:+12V #PWR04
U 1 1 60D6B8D1
P 4050 3650
F 0 "#PWR04" H 4050 3500 50  0001 C CNN
F 1 "+12V" H 4065 3823 50  0000 C CNN
F 2 "" H 4050 3650 50  0001 C CNN
F 3 "" H 4050 3650 50  0001 C CNN
	1    4050 3650
	1    0    0    -1  
$EndComp
$Comp
L power:+BATT #PWR05
U 1 1 60D74025
P 4900 3600
F 0 "#PWR05" H 4900 3450 50  0001 C CNN
F 1 "+BATT" H 4915 3773 50  0000 C CNN
F 2 "" H 4900 3600 50  0001 C CNN
F 3 "" H 4900 3600 50  0001 C CNN
	1    4900 3600
	1    0    0    -1  
$EndComp
Wire Wire Line
	4800 3950 4900 3950
Wire Wire Line
	4050 3650 4050 3950
Wire Wire Line
	4050 3950 4200 3950
$Comp
L DPsymbols:OKY3504-0 U2
U 1 1 60DDBA30
P 4000 4950
F 0 "U2" H 4025 5315 50  0000 C CNN
F 1 "OKY3504-0" H 4025 5224 50  0000 C CNN
F 2 "DPfootprints:OKY3504-0" H 4250 5050 50  0001 C CNN
F 3 "" H 4250 5050 50  0001 C CNN
	1    4000 4950
	1    0    0    -1  
$EndComp
Wire Wire Line
	4500 4850 4400 4850
Wire Wire Line
	3650 4850 3600 4850
Wire Wire Line
	3600 4850 3600 4500
Wire Wire Line
	3600 4500 4500 4500
Connection ~ 4500 4500
Wire Wire Line
	4500 4500 4500 4850
Wire Wire Line
	3600 5050 3650 5050
$Comp
L power:+5V #PWR015
U 1 1 60E2ADAE
P 4650 4900
F 0 "#PWR015" H 4650 4750 50  0001 C CNN
F 1 "+5V" H 4665 5073 50  0000 C CNN
F 2 "" H 4650 4900 50  0001 C CNN
F 3 "" H 4650 4900 50  0001 C CNN
	1    4650 4900
	1    0    0    -1  
$EndComp
Wire Wire Line
	4650 5050 4650 4900
$Comp
L DPsymbols:LGE2304 Q3
U 1 1 60E86279
P 2250 2350
F 0 "Q3" H 2454 2396 50  0000 L CNN
F 1 "LGE2304" H 2454 2305 50  0000 L CNN
F 2 "Package_TO_SOT_SMD:SOT-23" H 2450 2450 50  0001 C CNN
F 3 "~" H 2250 2350 50  0001 C CNN
	1    2250 2350
	1    0    0    -1  
$EndComp
Wire Wire Line
	2350 2700 2350 2650
Wire Wire Line
	2350 1900 2350 2050
$Comp
L power:+5V #PWR011
U 1 1 60E954DB
P 1750 1900
F 0 "#PWR011" H 1750 1750 50  0001 C CNN
F 1 "+5V" H 1765 2073 50  0000 C CNN
F 2 "" H 1750 1900 50  0001 C CNN
F 3 "" H 1750 1900 50  0001 C CNN
	1    1750 1900
	1    0    0    -1  
$EndComp
$Comp
L Device:R R8
U 1 1 60E9779E
P 1750 2150
F 0 "R8" H 1680 2104 50  0000 R CNN
F 1 "4.7k" H 1680 2195 50  0000 R CNN
F 2 "Resistor_SMD:R_1206_3216Metric_Pad1.30x1.75mm_HandSolder" V 1680 2150 50  0001 C CNN
F 3 "~" H 1750 2150 50  0001 C CNN
	1    1750 2150
	-1   0    0    1   
$EndComp
Wire Wire Line
	1750 2300 1750 2350
Wire Wire Line
	1750 2000 1750 1900
Text GLabel 1500 2350 0    50   Input ~ 0
BATT_TEST_ENABLE
Wire Wire Line
	1500 2350 1750 2350
Connection ~ 1750 2350
Wire Wire Line
	1750 2350 2050 2350
Wire Wire Line
	2350 2650 2900 2650
Wire Wire Line
	2900 2650 2900 2500
Connection ~ 2350 2650
Wire Wire Line
	2350 2650 2350 2550
Wire Wire Line
	2900 2200 2900 2050
Wire Wire Line
	2900 2050 2350 2050
Connection ~ 2350 2050
Wire Wire Line
	2350 2050 2350 2150
$Comp
L Device:D_x2_KCom_AKA D2
U 1 1 60D69F42
P 4500 3950
F 0 "D2" H 4500 4167 50  0000 C CNN
F 1 "D_x2_KCom_AKA" H 4500 4076 50  0000 C CNN
F 2 "Package_TO_SOT_SMD:TO-263-3_TabPin2" H 4500 3950 50  0001 C CNN
F 3 "~" H 4500 3950 50  0001 C CNN
	1    4500 3950
	1    0    0    -1  
$EndComp
Wire Wire Line
	4400 5050 4650 5050
$Comp
L Jumper:SolderJumper_2_Open JP1
U 1 1 60EB1CD1
P 2900 2350
F 0 "JP1" V 2950 2600 50  0000 L CNN
F 1 "SolderJumper_2_Open" H 2500 2450 50  0000 L CNN
F 2 "Jumper:SolderJumper-2_P1.3mm_Open_Pad1.0x1.5mm" H 2900 2350 50  0001 C CNN
F 3 "~" H 2900 2350 50  0001 C CNN
	1    2900 2350
	0    1    1    0   
$EndComp
$Comp
L power:GND #PWR035
U 1 1 616EADF6
P 3600 5500
F 0 "#PWR035" H 3600 5250 50  0001 C CNN
F 1 "GND" H 3605 5327 50  0000 C CNN
F 2 "" H 3600 5500 50  0001 C CNN
F 3 "" H 3600 5500 50  0001 C CNN
	1    3600 5500
	1    0    0    -1  
$EndComp
Wire Wire Line
	3600 5050 3600 5400
$Comp
L Device:CP C10
U 1 1 61721BD4
P 4650 5200
F 0 "C10" H 4768 5246 50  0000 L CNN
F 1 "250uF" H 4768 5155 50  0000 L CNN
F 2 "Capacitor_SMD:CP_Elec_8x10" H 4688 5050 50  0001 C CNN
F 3 "~" H 4650 5200 50  0001 C CNN
	1    4650 5200
	1    0    0    -1  
$EndComp
Connection ~ 4650 5050
Wire Wire Line
	3600 5400 4650 5400
Wire Wire Line
	4650 5400 4650 5350
Connection ~ 3600 5400
Wire Wire Line
	3600 5400 3600 5500
$Comp
L Device:R R13
U 1 1 6177CEF5
P 3550 1750
F 0 "R13" H 3620 1796 50  0000 L CNN
F 1 "prec10k" H 3620 1705 50  0000 L CNN
F 2 "Resistor_SMD:R_1206_3216Metric_Pad1.30x1.75mm_HandSolder" V 3480 1750 50  0001 C CNN
F 3 "~" H 3550 1750 50  0001 C CNN
	1    3550 1750
	1    0    0    -1  
$EndComp
$Comp
L Device:R R14
U 1 1 6177F270
P 3550 2200
F 0 "R14" H 3620 2246 50  0000 L CNN
F 1 "prec5k1" H 3620 2155 50  0000 L CNN
F 2 "Resistor_SMD:R_1206_3216Metric_Pad1.30x1.75mm_HandSolder" V 3480 2200 50  0001 C CNN
F 3 "~" H 3550 2200 50  0001 C CNN
	1    3550 2200
	1    0    0    -1  
$EndComp
Wire Wire Line
	3550 1600 3550 1450
Connection ~ 3550 1450
Wire Wire Line
	3550 1900 3550 2000
Wire Wire Line
	3550 2350 3550 2650
Wire Wire Line
	3550 2650 2900 2650
Connection ~ 2900 2650
Text GLabel 3850 2050 3    50   Output ~ 0
AC_Present_Measure
Wire Wire Line
	3850 2050 3850 2000
Wire Wire Line
	3850 2000 3550 2000
Connection ~ 3550 2000
Wire Wire Line
	3550 2000 3550 2050
$Sheet
S 1300 3650 800  500 
U 6212692C
F0 "MCU" 50
F1 "MCU.sch" 50
$EndSheet
Wire Wire Line
	6550 3300 5650 3300
$Sheet
S 1100 6250 1000 450 
U 625C166C
F0 "wifi" 50
F1 "wifi.sch" 50
$EndSheet
$Comp
L power:GND #PWR0101
U 1 1 6275294B
P 7300 4450
AR Path="/6275294B" Ref="#PWR0101"  Part="1" 
AR Path="/625C166C/6275294B" Ref="#PWR?"  Part="1" 
F 0 "#PWR0101" H 7300 4200 50  0001 C CNN
F 1 "GND" H 7305 4277 50  0000 C CNN
F 2 "" H 7300 4450 50  0001 C CNN
F 3 "" H 7300 4450 50  0001 C CNN
	1    7300 4450
	1    0    0    -1  
$EndComp
$Comp
L power:GND #PWR0102
U 1 1 62752951
P 7600 4450
AR Path="/62752951" Ref="#PWR0102"  Part="1" 
AR Path="/625C166C/62752951" Ref="#PWR?"  Part="1" 
F 0 "#PWR0102" H 7600 4200 50  0001 C CNN
F 1 "GND" H 7605 4277 50  0000 C CNN
F 2 "" H 7600 4450 50  0001 C CNN
F 3 "" H 7600 4450 50  0001 C CNN
	1    7600 4450
	1    0    0    -1  
$EndComp
$Comp
L Connector_Generic:Conn_01x06 J2
U 1 1 62752957
P 7500 4150
AR Path="/62752957" Ref="J2"  Part="1" 
AR Path="/625C166C/62752957" Ref="J?"  Part="1" 
F 0 "J2" V 7464 3762 50  0000 R CNN
F 1 "Conn_01x06" V 7373 3762 50  0000 R CNN
F 2 "Connector_PinHeader_2.54mm:PinHeader_1x06_P2.54mm_Vertical" H 7500 4150 50  0001 C CNN
F 3 "~" H 7500 4150 50  0001 C CNN
	1    7500 4150
	0    -1   -1   0   
$EndComp
Text GLabel 9050 5000 2    50   Output ~ 0
ESP_UART_RX
Text GLabel 6850 5000 0    50   Input ~ 0
ATMEG_UART_TX
Text GLabel 7700 5250 2    50   Input ~ 0
ESP_UART_TX
Text GLabel 6850 5250 0    50   Output ~ 0
ATMEGA_UART_RX
Text GLabel 7950 4450 2    50   Output ~ 0
ESP_PROGRAM_SUPPLY
Text GLabel 7950 4600 2    50   Output ~ 0
ESP_UART_MODE
Wire Wire Line
	7700 4350 7700 4600
Wire Wire Line
	7800 4350 7800 4450
Wire Wire Line
	7800 4450 7950 4450
Wire Wire Line
	7950 4600 7700 4600
Wire Wire Line
	7600 4450 7600 4350
Wire Wire Line
	7300 4450 7300 4350
$Comp
L Jumper:SolderJumper_3_Bridged123 JP2
U 1 1 62752969
P 7200 5250
AR Path="/62752969" Ref="JP2"  Part="1" 
AR Path="/625C166C/62752969" Ref="JP?"  Part="1" 
F 0 "JP2" H 7200 5363 50  0000 C CNN
F 1 "SolderJumper_3_Bridged123" H 7200 5454 50  0000 C CNN
F 2 "Jumper:SolderJumper-3_P1.3mm_Open_Pad1.0x1.5mm_NumberLabels" H 7200 5250 50  0001 C CNN
F 3 "~" H 7200 5250 50  0001 C CNN
	1    7200 5250
	-1   0    0    1   
$EndComp
$Comp
L Jumper:SolderJumper_3_Bridged123 JP3
U 1 1 6275296F
P 7700 5000
AR Path="/6275296F" Ref="JP3"  Part="1" 
AR Path="/625C166C/6275296F" Ref="JP?"  Part="1" 
F 0 "JP3" H 7700 5113 50  0000 C CNN
F 1 "SolderJumper_3_Bridged123" H 7700 4950 50  0000 C CNN
F 2 "Jumper:SolderJumper-3_P1.3mm_Open_Pad1.0x1.5mm_NumberLabels" H 7700 5000 50  0001 C CNN
F 3 "~" H 7700 5000 50  0001 C CNN
	1    7700 5000
	-1   0    0    1   
$EndComp
Wire Wire Line
	7700 4850 7700 4750
Wire Wire Line
	7700 4750 7500 4750
Wire Wire Line
	7500 4750 7500 4350
Wire Wire Line
	7400 4350 7400 4750
Wire Wire Line
	7400 4750 7200 4750
Wire Wire Line
	7200 4750 7200 5100
$Comp
L Device:R R9
U 1 1 6275297B
P 8800 5000
AR Path="/6275297B" Ref="R9"  Part="1" 
AR Path="/625C166C/6275297B" Ref="R?"  Part="1" 
F 0 "R9" H 8730 4954 50  0000 R CNN
F 1 "prec5k1" H 8730 5045 50  0000 R CNN
F 2 "Resistor_SMD:R_1206_3216Metric_Pad1.30x1.75mm_HandSolder" V 8730 5000 50  0001 C CNN
F 3 "~" H 8800 5000 50  0001 C CNN
	1    8800 5000
	0    -1   -1   0   
$EndComp
$Comp
L Device:R R10
U 1 1 62752981
P 8800 5200
AR Path="/62752981" Ref="R10"  Part="1" 
AR Path="/625C166C/62752981" Ref="R?"  Part="1" 
F 0 "R10" H 8730 5154 50  0000 R CNN
F 1 "prec10k" H 8730 5245 50  0000 R CNN
F 2 "Resistor_SMD:R_1206_3216Metric_Pad1.30x1.75mm_HandSolder" V 8730 5200 50  0001 C CNN
F 3 "~" H 8800 5200 50  0001 C CNN
	1    8800 5200
	0    -1   -1   0   
$EndComp
$Comp
L power:GND #PWR0103
U 1 1 62752987
P 9100 5250
AR Path="/62752987" Ref="#PWR0103"  Part="1" 
AR Path="/625C166C/62752987" Ref="#PWR?"  Part="1" 
F 0 "#PWR0103" H 9100 5000 50  0001 C CNN
F 1 "GND" H 9250 5200 50  0000 C CNN
F 2 "" H 9100 5250 50  0001 C CNN
F 3 "" H 9100 5250 50  0001 C CNN
	1    9100 5250
	1    0    0    -1  
$EndComp
Wire Wire Line
	8950 5200 9100 5200
Wire Wire Line
	9100 5200 9100 5250
Wire Wire Line
	6850 5000 7500 5000
Wire Wire Line
	6850 5250 7000 5250
Wire Wire Line
	7400 5250 7700 5250
$Sheet
S 1300 5050 750  500 
U 627602B4
F0 "sensors" 50
F1 "Sensors.sch" 50
$EndSheet
Wire Wire Line
	4500 4150 4500 4500
$Comp
L power:PWR_FLAG #FLG0101
U 1 1 628D43F8
P 1450 1000
F 0 "#FLG0101" H 1450 1075 50  0001 C CNN
F 1 "PWR_FLAG" H 1450 1400 50  0000 C CNN
F 2 "" H 1450 1000 50  0001 C CNN
F 3 "~" H 1450 1000 50  0001 C CNN
	1    1450 1000
	1    0    0    -1  
$EndComp
Wire Wire Line
	1450 1100 1450 1000
Connection ~ 1450 1100
Wire Wire Line
	1450 1100 1600 1100
Wire Wire Line
	4900 3600 4900 3950
$Comp
L power:PWR_FLAG #FLG0102
U 1 1 62988D66
P 9950 2100
F 0 "#FLG0102" H 9950 2175 50  0001 C CNN
F 1 "PWR_FLAG" H 9950 2273 50  0000 C CNN
F 2 "" H 9950 2100 50  0001 C CNN
F 3 "~" H 9950 2100 50  0001 C CNN
	1    9950 2100
	1    0    0    -1  
$EndComp
Wire Wire Line
	9950 2350 9950 2100
Wire Wire Line
	9800 2350 9950 2350
Connection ~ 9950 2350
Wire Wire Line
	9950 2350 10100 2350
$Comp
L power:GND #PWR0125
U 1 1 629FD2C9
P 950 3150
F 0 "#PWR0125" H 950 2900 50  0001 C CNN
F 1 "GND" H 955 2977 50  0000 C CNN
F 2 "" H 950 3150 50  0001 C CNN
F 3 "" H 950 3150 50  0001 C CNN
	1    950  3150
	1    0    0    -1  
$EndComp
$Comp
L power:PWR_FLAG #FLG0104
U 1 1 629FE820
P 950 3100
F 0 "#FLG0104" H 950 3175 50  0001 C CNN
F 1 "PWR_FLAG" H 950 3500 50  0000 C CNN
F 2 "" H 950 3100 50  0001 C CNN
F 3 "~" H 950 3100 50  0001 C CNN
	1    950  3100
	1    0    0    -1  
$EndComp
Wire Wire Line
	950  3100 950  3150
$Comp
L Device:R R25
U 1 1 62A549B0
P 6950 1750
F 0 "R25" H 7020 1796 50  0000 L CNN
F 1 "prec10k" H 7020 1705 50  0000 L CNN
F 2 "Resistor_SMD:R_1206_3216Metric_Pad1.30x1.75mm_HandSolder" V 6880 1750 50  0001 C CNN
F 3 "~" H 6950 1750 50  0001 C CNN
	1    6950 1750
	1    0    0    -1  
$EndComp
$Comp
L Device:R R26
U 1 1 62A552BD
P 6950 2300
F 0 "R26" H 7020 2346 50  0000 L CNN
F 1 "prec5k1" H 7020 2255 50  0000 L CNN
F 2 "Resistor_SMD:R_1206_3216Metric_Pad1.30x1.75mm_HandSolder" V 6880 2300 50  0001 C CNN
F 3 "~" H 6950 2300 50  0001 C CNN
	1    6950 2300
	1    0    0    -1  
$EndComp
Text GLabel 7150 2000 2    50   Output ~ 0
V_Charge_Measure
Wire Wire Line
	6950 1600 6950 1500
Connection ~ 6950 1500
Wire Wire Line
	6950 1500 7150 1500
Wire Wire Line
	6950 1900 6950 2000
Connection ~ 6950 2000
Wire Wire Line
	6950 2000 6950 2150
Wire Wire Line
	6950 3300 6550 3300
Connection ~ 6550 3300
Wire Wire Line
	6950 2000 7150 2000
$Comp
L Device:R_POT RV2
U 1 1 62CDA07A
P 5650 3000
F 0 "RV2" H 5580 2954 50  0000 R CNN
F 1 "100" H 5580 3045 50  0000 R CNN
F 2 "DPfootprints:Potentiometer_Runtron_RM-065_Vertical" H 5650 3000 50  0001 C CNN
F 3 "~" H 5650 3000 50  0001 C CNN
	1    5650 3000
	-1   0    0    1   
$EndComp
Wire Wire Line
	5650 2850 5650 2800
Wire Wire Line
	5650 3150 5650 3300
Wire Wire Line
	5650 2800 5500 2800
Wire Wire Line
	5500 2800 5500 3000
Connection ~ 5650 2800
Wire Wire Line
	5650 2800 5650 2750
Wire Wire Line
	5200 1950 5200 3300
Wire Wire Line
	6950 2450 6950 3300
Wire Wire Line
	6550 1900 6550 3300
Wire Wire Line
	7900 5000 8550 5000
Wire Wire Line
	8950 5000 9050 5000
Wire Wire Line
	8650 5200 8550 5200
Wire Wire Line
	8550 5200 8550 5000
Connection ~ 8550 5000
Wire Wire Line
	8550 5000 8650 5000
$Comp
L Device:Fuse F1
U 1 1 62D6D6D6
P 2200 1100
F 0 "F1" V 2003 1100 50  0000 C CNN
F 1 "Fuse" V 2094 1100 50  0000 C CNN
F 2 "DPfootprints:Fuse" V 2130 1100 50  0001 C CNN
F 3 "~" H 2200 1100 50  0001 C CNN
	1    2200 1100
	0    1    1    0   
$EndComp
Wire Wire Line
	800  1200 1550 1200
Connection ~ 1300 1100
Wire Wire Line
	2000 1100 2050 1100
Wire Wire Line
	2350 1100 2400 1100
Wire Wire Line
	800  1100 1300 1100
$EndSCHEMATC
