EESchema Schematic File Version 4
EELAYER 30 0
EELAYER END
$Descr A4 11693 8268
encoding utf-8
Sheet 2 4
Title ""
Date ""
Rev ""
Comp ""
Comment1 ""
Comment2 ""
Comment3 ""
Comment4 ""
$EndDescr
Wire Wire Line
	8600 4050 8600 4000
Wire Wire Line
	8550 4050 8600 4050
$Comp
L power:+5V #PWR?
U 1 1 62BBA8FA
P 8600 4000
AR Path="/62BBA8FA" Ref="#PWR?"  Part="1" 
AR Path="/6212692C/62BBA8FA" Ref="#PWR06"  Part="1" 
F 0 "#PWR06" H 8600 3850 50  0001 C CNN
F 1 "+5V" H 8615 4173 50  0000 C CNN
F 2 "" H 8600 4000 50  0001 C CNN
F 3 "" H 8600 4000 50  0001 C CNN
	1    8600 4000
	1    0    0    -1  
$EndComp
Wire Wire Line
	8050 2900 8050 4050
Wire Wire Line
	8250 4050 8050 4050
Text GLabel 5250 2650 2    50   Output ~ 0
MQ7_ENABLE
Wire Wire Line
	7550 2700 7550 2850
Wire Wire Line
	8100 2900 8050 2900
Wire Wire Line
	7900 2800 7900 3050
Wire Wire Line
	8100 2800 7900 2800
Wire Wire Line
	7650 2600 8100 2600
Wire Wire Line
	7650 2950 7650 2600
Wire Wire Line
	8100 2700 7550 2700
$Comp
L Connector:AVR-ISP-10 J?
U 1 1 6214B039
P 8500 2800
AR Path="/6214B039" Ref="J?"  Part="1" 
AR Path="/6212692C/6214B039" Ref="J3"  Part="1" 
F 0 "J3" H 8170 2896 50  0000 R CNN
F 1 "AVR-ISP-10" H 8170 2805 50  0000 R CNN
F 2 "Connector_IDC:IDC-Header_2x05_P2.54mm_Vertical" V 8250 2850 50  0001 C CNN
F 3 " ~" H 7225 2250 50  0001 C CNN
	1    8500 2800
	-1   0    0    -1  
$EndComp
Text GLabel 5250 2550 2    50   Output ~ 0
MQ2_ENABLE
Wire Wire Line
	5100 2650 5250 2650
Wire Wire Line
	5100 2550 5250 2550
$Comp
L Device:Buzzer BZ1
U 1 1 62411A60
P 6600 2500
F 0 "BZ1" H 6752 2529 50  0000 L CNN
F 1 "Buzzer" H 6752 2438 50  0000 L CNN
F 2 "Buzzer_Beeper:Buzzer_15x7.5RM7.6" V 6575 2600 50  0001 C CNN
F 3 "~" V 6575 2600 50  0001 C CNN
	1    6600 2500
	1    0    0    -1  
$EndComp
Wire Wire Line
	5100 2750 5950 2750
Wire Wire Line
	5950 2750 5950 2400
Wire Wire Line
	5950 2400 6500 2400
$Comp
L power:GND #PWR?
U 1 1 62416CED
P 6100 2650
AR Path="/62416CED" Ref="#PWR?"  Part="1" 
AR Path="/6212692C/62416CED" Ref="#PWR045"  Part="1" 
F 0 "#PWR045" H 6100 2400 50  0001 C CNN
F 1 "GND" H 6105 2477 50  0000 C CNN
F 2 "" H 6100 2650 50  0001 C CNN
F 3 "" H 6100 2650 50  0001 C CNN
	1    6100 2650
	1    0    0    -1  
$EndComp
Wire Wire Line
	6100 2650 6100 2600
Wire Wire Line
	6100 2600 6500 2600
Wire Wire Line
	5100 3050 7900 3050
$Comp
L Device:LED D7
U 1 1 6243FE7D
P 7800 5300
F 0 "D7" V 7839 5182 50  0000 R CNN
F 1 "LED" V 7748 5182 50  0000 R CNN
F 2 "LED_THT:LED_D3.0mm" H 7800 5300 50  0001 C CNN
F 3 "~" H 7800 5300 50  0001 C CNN
	1    7800 5300
	0    -1   -1   0   
$EndComp
$Comp
L Device:LED D6
U 1 1 624413AB
P 7550 5300
F 0 "D6" V 7589 5182 50  0000 R CNN
F 1 "LED" V 7498 5182 50  0000 R CNN
F 2 "LED_THT:LED_D3.0mm" H 7550 5300 50  0001 C CNN
F 3 "~" H 7550 5300 50  0001 C CNN
	1    7550 5300
	0    -1   -1   0   
$EndComp
$Comp
L Device:R R23
U 1 1 6245E778
P 7550 5700
F 0 "R23" H 7620 5746 50  0000 L CNN
F 1 "R" H 7620 5655 50  0000 L CNN
F 2 "Resistor_SMD:R_1206_3216Metric_Pad1.30x1.75mm_HandSolder" V 7480 5700 50  0001 C CNN
F 3 "~" H 7550 5700 50  0001 C CNN
	1    7550 5700
	1    0    0    -1  
$EndComp
$Comp
L Device:R R24
U 1 1 6245ED0C
P 7800 5700
F 0 "R24" H 7870 5746 50  0000 L CNN
F 1 "R" H 7870 5655 50  0000 L CNN
F 2 "Resistor_SMD:R_1206_3216Metric_Pad1.30x1.75mm_HandSolder" V 7730 5700 50  0001 C CNN
F 3 "~" H 7800 5700 50  0001 C CNN
	1    7800 5700
	1    0    0    -1  
$EndComp
Wire Wire Line
	7550 5550 7550 5450
Wire Wire Line
	7800 5550 7800 5450
Wire Wire Line
	7550 5900 7800 5900
Wire Wire Line
	7800 5850 7800 5900
Wire Wire Line
	7550 5900 7550 5850
Connection ~ 7800 5900
Wire Wire Line
	7800 5900 7800 5950
$Comp
L power:GND #PWR?
U 1 1 62466A92
P 7800 5950
AR Path="/62466A92" Ref="#PWR?"  Part="1" 
AR Path="/6212692C/62466A92" Ref="#PWR048"  Part="1" 
F 0 "#PWR048" H 7800 5700 50  0001 C CNN
F 1 "GND" H 7805 5777 50  0000 C CNN
F 2 "" H 7800 5950 50  0001 C CNN
F 3 "" H 7800 5950 50  0001 C CNN
	1    7800 5950
	1    0    0    -1  
$EndComp
Wire Wire Line
	5100 2850 7550 2850
Wire Wire Line
	5100 2950 7650 2950
$Comp
L Device:R R?
U 1 1 6214AFEC
P 8400 4050
AR Path="/6214AFEC" Ref="R?"  Part="1" 
AR Path="/6212692C/6214AFEC" Ref="R20"  Part="1" 
F 0 "R20" V 8193 4050 50  0000 C CNN
F 1 "10k" V 8284 4050 50  0000 C CNN
F 2 "Resistor_SMD:R_1206_3216Metric_Pad1.30x1.75mm_HandSolder" V 8330 4050 50  0001 C CNN
F 3 "~" H 8400 4050 50  0001 C CNN
	1    8400 4050
	0    1    1    0   
$EndComp
$Comp
L power:+5V #PWR?
U 1 1 6214B009
P 4150 1550
AR Path="/6214B009" Ref="#PWR?"  Part="1" 
AR Path="/6212692C/6214B009" Ref="#PWR042"  Part="1" 
F 0 "#PWR042" H 4150 1400 50  0001 C CNN
F 1 "+5V" H 4165 1723 50  0000 C CNN
F 2 "" H 4150 1550 50  0001 C CNN
F 3 "" H 4150 1550 50  0001 C CNN
	1    4150 1550
	1    0    0    -1  
$EndComp
$Comp
L Device:L L?
U 1 1 6214B013
P 4350 1600
AR Path="/6214B013" Ref="L?"  Part="1" 
AR Path="/6212692C/6214B013" Ref="L1"  Part="1" 
F 0 "L1" V 4169 1600 50  0000 C CNN
F 1 "10uH" V 4260 1600 50  0000 C CNN
F 2 "Inductor_SMD:L_1206_3216Metric_Pad1.22x1.90mm_HandSolder" H 4350 1600 50  0001 C CNN
F 3 "~" H 4350 1600 50  0001 C CNN
	1    4350 1600
	0    1    1    0   
$EndComp
$Comp
L Device:C C?
U 1 1 6214B020
P 4800 1800
AR Path="/6214B020" Ref="C?"  Part="1" 
AR Path="/6212692C/6214B020" Ref="C14"  Part="1" 
F 0 "C14" H 4918 1846 50  0000 L CNN
F 1 "100nF" H 4918 1755 50  0000 L CNN
F 2 "Capacitor_SMD:C_1206_3216Metric_Pad1.33x1.80mm_HandSolder" H 4838 1650 50  0001 C CNN
F 3 "~" H 4800 1800 50  0001 C CNN
	1    4800 1800
	1    0    0    -1  
$EndComp
Wire Wire Line
	4150 1550 4150 1600
Connection ~ 4150 1600
Wire Wire Line
	4150 1600 4200 1600
Wire Wire Line
	4500 1600 4600 1600
Wire Wire Line
	4800 1650 4800 1600
$Comp
L Device:C C?
U 1 1 62A03E00
P 3750 1850
AR Path="/62A03E00" Ref="C?"  Part="1" 
AR Path="/6212692C/62A03E00" Ref="C13"  Part="1" 
F 0 "C13" H 3868 1896 50  0000 L CNN
F 1 "100nF" H 3868 1805 50  0000 L CNN
F 2 "Capacitor_SMD:C_1206_3216Metric_Pad1.33x1.80mm_HandSolder" H 3788 1700 50  0001 C CNN
F 3 "~" H 3750 1850 50  0001 C CNN
	1    3750 1850
	1    0    0    -1  
$EndComp
$Comp
L power:GND #PWR?
U 1 1 62A04820
P 3750 2100
AR Path="/62A04820" Ref="#PWR?"  Part="1" 
AR Path="/6212692C/62A04820" Ref="#PWR0126"  Part="1" 
F 0 "#PWR0126" H 3750 1850 50  0001 C CNN
F 1 "GND" H 3755 1927 50  0000 C CNN
F 2 "" H 3750 2100 50  0001 C CNN
F 3 "" H 3750 2100 50  0001 C CNN
	1    3750 2100
	1    0    0    -1  
$EndComp
Wire Wire Line
	3750 2100 3750 2000
Wire Wire Line
	3750 1700 3750 1600
Wire Wire Line
	3750 1600 4150 1600
Wire Wire Line
	4150 1600 4150 2100
Wire Wire Line
	4150 2100 4500 2100
Wire Wire Line
	4500 2100 4500 2250
Wire Wire Line
	4600 2250 4600 1600
Connection ~ 4600 1600
Wire Wire Line
	4600 1600 4800 1600
$Comp
L power:GND #PWR?
U 1 1 62A0B802
P 4800 2050
AR Path="/62A0B802" Ref="#PWR?"  Part="1" 
AR Path="/6212692C/62A0B802" Ref="#PWR0127"  Part="1" 
F 0 "#PWR0127" H 4800 1800 50  0001 C CNN
F 1 "GND" H 4805 1877 50  0000 C CNN
F 2 "" H 4800 2050 50  0001 C CNN
F 3 "" H 4800 2050 50  0001 C CNN
	1    4800 2050
	1    0    0    -1  
$EndComp
Wire Wire Line
	4800 1950 4800 2050
$Comp
L power:PWR_FLAG #FLG0105
U 1 1 62A0E195
P 4600 1550
F 0 "#FLG0105" H 4600 1625 50  0001 C CNN
F 1 "PWR_FLAG" H 4600 1723 50  0000 C CNN
F 2 "" H 4600 1550 50  0001 C CNN
F 3 "~" H 4600 1550 50  0001 C CNN
	1    4600 1550
	1    0    0    -1  
$EndComp
Wire Wire Line
	4600 1600 4600 1550
Wire Wire Line
	4500 5250 4500 5350
$Comp
L power:GND #PWR?
U 1 1 62A10B00
P 4500 5350
AR Path="/62A10B00" Ref="#PWR?"  Part="1" 
AR Path="/6212692C/62A10B00" Ref="#PWR0128"  Part="1" 
F 0 "#PWR0128" H 4500 5100 50  0001 C CNN
F 1 "GND" H 4505 5177 50  0000 C CNN
F 2 "" H 4500 5350 50  0001 C CNN
F 3 "" H 4500 5350 50  0001 C CNN
	1    4500 5350
	1    0    0    -1  
$EndComp
$Comp
L MCU_Microchip_ATmega:ATmega88A-PU U9
U 1 1 62AD6396
P 4500 3750
F 0 "U9" H 3857 3796 50  0000 R CNN
F 1 "ATmega88A-PU" H 3857 3705 50  0000 R CNN
F 2 "Package_DIP:DIP-28_W7.62mm" H 4500 3750 50  0001 C CIN
F 3 "http://ww1.microchip.com/downloads/en/DeviceDoc/ATmega48A_88A_168A-Data-Sheet-40002007A.pdf" H 4500 3750 50  0001 C CNN
	1    4500 3750
	1    0    0    -1  
$EndComp
Wire Wire Line
	8600 3250 8600 3200
$Comp
L power:GND #PWR?
U 1 1 62A17600
P 8600 3250
AR Path="/62A17600" Ref="#PWR?"  Part="1" 
AR Path="/6212692C/62A17600" Ref="#PWR0129"  Part="1" 
F 0 "#PWR0129" H 8600 3000 50  0001 C CNN
F 1 "GND" H 8605 3077 50  0000 C CNN
F 2 "" H 8600 3250 50  0001 C CNN
F 3 "" H 8600 3250 50  0001 C CNN
	1    8600 3250
	1    0    0    -1  
$EndComp
Wire Wire Line
	3350 3050 3350 2950
$Comp
L power:GND #PWR0124
U 1 1 629F5EF5
P 3350 3050
F 0 "#PWR0124" H 3350 2800 50  0001 C CNN
F 1 "GND" H 3355 2877 50  0000 C CNN
F 2 "" H 3350 3050 50  0001 C CNN
F 3 "" H 3350 3050 50  0001 C CNN
	1    3350 3050
	1    0    0    -1  
$EndComp
Wire Wire Line
	6650 5850 6650 5800
Connection ~ 6650 5850
Wire Wire Line
	6250 5850 6250 5800
Wire Wire Line
	6650 5850 6250 5850
Wire Wire Line
	6650 5900 6650 5850
$Comp
L power:GND #PWR?
U 1 1 624671A0
P 6650 5900
AR Path="/624671A0" Ref="#PWR?"  Part="1" 
AR Path="/6212692C/624671A0" Ref="#PWR046"  Part="1" 
F 0 "#PWR046" H 6650 5650 50  0001 C CNN
F 1 "GND" H 6655 5727 50  0000 C CNN
F 2 "" H 6650 5900 50  0001 C CNN
F 3 "" H 6650 5900 50  0001 C CNN
	1    6650 5900
	1    0    0    -1  
$EndComp
Wire Wire Line
	6650 5500 6650 5400
Wire Wire Line
	6250 5500 6250 5400
$Comp
L Device:R R22
U 1 1 6245E1AB
P 6650 5650
F 0 "R22" H 6720 5696 50  0000 L CNN
F 1 "R" H 6720 5605 50  0000 L CNN
F 2 "Resistor_SMD:R_1206_3216Metric_Pad1.30x1.75mm_HandSolder" V 6580 5650 50  0001 C CNN
F 3 "~" H 6650 5650 50  0001 C CNN
	1    6650 5650
	1    0    0    -1  
$EndComp
$Comp
L Device:R R21
U 1 1 6245D258
P 6250 5650
F 0 "R21" H 6320 5696 50  0000 L CNN
F 1 "R" H 6320 5605 50  0000 L CNN
F 2 "Resistor_SMD:R_1206_3216Metric_Pad1.30x1.75mm_HandSolder" V 6180 5650 50  0001 C CNN
F 3 "~" H 6250 5650 50  0001 C CNN
	1    6250 5650
	1    0    0    -1  
$EndComp
Wire Wire Line
	6250 4750 6250 5100
Wire Wire Line
	5100 4750 6250 4750
Wire Wire Line
	6650 4650 6650 5100
Wire Wire Line
	5100 4650 6650 4650
$Comp
L Device:LED D5
U 1 1 62442E1E
P 6650 5250
F 0 "D5" V 6689 5132 50  0000 R CNN
F 1 "LED" V 6598 5132 50  0000 R CNN
F 2 "LED_THT:LED_D3.0mm" H 6650 5250 50  0001 C CNN
F 3 "~" H 6650 5250 50  0001 C CNN
	1    6650 5250
	0    -1   -1   0   
$EndComp
$Comp
L Device:LED D4
U 1 1 62441FE3
P 6250 5250
F 0 "D4" V 6289 5132 50  0000 R CNN
F 1 "LED" V 6198 5132 50  0000 R CNN
F 2 "LED_THT:LED_D3.0mm" H 6250 5250 50  0001 C CNN
F 3 "~" H 6250 5250 50  0001 C CNN
	1    6250 5250
	0    -1   -1   0   
$EndComp
Wire Wire Line
	5100 4950 5250 4950
Text GLabel 5250 4950 2    50   Output ~ 0
BATT_TEST_ENABLE
Wire Wire Line
	5100 4850 5250 4850
Text GLabel 5250 4850 2    50   Output ~ 0
Batt_Charge_Enable
Wire Wire Line
	5100 4550 6000 4550
Wire Wire Line
	6850 4550 6850 4700
Wire Wire Line
	6400 4550 6850 4550
$Comp
L power:GND #PWR?
U 1 1 62373262
P 6850 4700
AR Path="/62373262" Ref="#PWR?"  Part="1" 
AR Path="/6212692C/62373262" Ref="#PWR047"  Part="1" 
F 0 "#PWR047" H 6850 4450 50  0001 C CNN
F 1 "GND" H 6855 4527 50  0000 C CNN
F 2 "" H 6850 4700 50  0001 C CNN
F 3 "" H 6850 4700 50  0001 C CNN
	1    6850 4700
	1    0    0    -1  
$EndComp
$Comp
L Switch:SW_Push SW2
U 1 1 62372ACD
P 6200 4550
F 0 "SW2" H 6200 4835 50  0000 C CNN
F 1 "SW_Push" H 6200 4744 50  0000 C CNN
F 2 "Button_Switch_THT:SW_PUSH_6mm" H 6200 4750 50  0001 C CNN
F 3 "~" H 6200 4750 50  0001 C CNN
	1    6200 4550
	1    0    0    -1  
$EndComp
Wire Wire Line
	5100 4450 5250 4450
Text GLabel 5250 4450 2    50   BiDi ~ 0
DHT11_DATA
Text GLabel 5250 4350 2    50   Output ~ 0
ATMEG_UART_TX
Wire Wire Line
	5100 4350 5250 4350
Wire Wire Line
	3350 2550 3900 2550
Text GLabel 5250 3450 2    50   Input ~ 0
MQ7-MEASURE
Text GLabel 5250 3550 2    50   Input ~ 0
MQ2-MEASURE
Wire Wire Line
	5100 3450 5250 3450
Wire Wire Line
	5100 3550 5250 3550
Text GLabel 5250 3650 2    50   Input ~ 0
MQ7-POWER-MEASURE
Wire Wire Line
	5100 3650 5250 3650
Text GLabel 5250 3750 2    50   Input ~ 0
V_Batt_Measure
Wire Wire Line
	5100 3750 5250 3750
Text GLabel 5250 3850 2    50   Input ~ 0
AC_Present_Measure
Wire Wire Line
	5100 3850 5250 3850
Wire Wire Line
	5100 4250 5250 4250
Text GLabel 5250 4250 2    50   Input ~ 0
ATMEGA_UART_RX
$Comp
L power:+5V #PWR?
U 1 1 6214AFC4
P 8600 2300
AR Path="/6214AFC4" Ref="#PWR?"  Part="1" 
AR Path="/6212692C/6214AFC4" Ref="#PWR049"  Part="1" 
F 0 "#PWR049" H 8600 2150 50  0001 C CNN
F 1 "+5V" H 8615 2473 50  0000 C CNN
F 2 "" H 8600 2300 50  0001 C CNN
F 3 "" H 8600 2300 50  0001 C CNN
	1    8600 2300
	1    0    0    -1  
$EndComp
Wire Wire Line
	3350 2650 3350 2550
$Comp
L Device:C C?
U 1 1 6214AFAF
P 3350 2800
AR Path="/6214AFAF" Ref="C?"  Part="1" 
AR Path="/6212692C/6214AFAF" Ref="C12"  Part="1" 
F 0 "C12" H 3468 2846 50  0000 L CNN
F 1 "100nF" H 3468 2755 50  0000 L CNN
F 2 "Capacitor_SMD:C_1206_3216Metric_Pad1.33x1.80mm_HandSolder" H 3388 2650 50  0001 C CNN
F 3 "~" H 3350 2800 50  0001 C CNN
	1    3350 2800
	1    0    0    -1  
$EndComp
Text GLabel 5300 3950 2    50   Input ~ 0
V_Charge_Measure
$Comp
L Jumper:SolderJumper_3_Bridged123 JP5
U 1 1 62C3BED9
P 6700 3450
F 0 "JP5" V 6746 3517 50  0000 L CNN
F 1 "SolderJumper_3_Bridged123" V 6655 3517 50  0000 L CNN
F 2 "Jumper:SolderJumper-3_P1.3mm_Open_Pad1.0x1.5mm_NumberLabels" H 6700 3450 50  0001 C CNN
F 3 "~" H 6700 3450 50  0001 C CNN
	1    6700 3450
	0    -1   -1   0   
$EndComp
Wire Wire Line
	6700 3700 6700 3650
Wire Wire Line
	5100 3250 6700 3250
Wire Wire Line
	5100 4050 5400 4050
Wire Wire Line
	5400 4050 5400 4150
Wire Wire Line
	5400 4150 6100 4150
Wire Wire Line
	6100 4150 6100 4200
Wire Wire Line
	8050 4200 8050 4050
Connection ~ 8050 4050
Wire Wire Line
	6700 3700 7000 3700
Wire Wire Line
	5300 3950 5100 3950
Wire Wire Line
	6100 4200 8050 4200
Wire Wire Line
	5100 3150 7550 3150
Text GLabel 7000 3700 2    50   Input ~ 0
ESP_STATUS
Wire Wire Line
	7800 5150 7800 3450
Wire Wire Line
	6850 3450 7800 3450
Wire Wire Line
	7550 5150 7550 3150
$EndSCHEMATC
