EESchema Schematic File Version 4
EELAYER 30 0
EELAYER END
$Descr A4 11693 8268
encoding utf-8
Sheet 4 4
Title ""
Date ""
Rev ""
Comp ""
Comment1 ""
Comment2 ""
Comment3 ""
Comment4 ""
$EndDescr
$Comp
L Device:CP C?
U 1 1 627B806A
P 4950 2600
AR Path="/627B806A" Ref="C?"  Part="1" 
AR Path="/627602B4/627B806A" Ref="C6"  Part="1" 
F 0 "C6" H 5068 2646 50  0000 L CNN
F 1 "1uF" H 5068 2555 50  0000 L CNN
F 2 "Capacitor_SMD:C_1206_3216Metric_Pad1.33x1.80mm_HandSolder" H 4988 2450 50  0001 C CNN
F 3 "~" H 4950 2600 50  0001 C CNN
	1    4950 2600
	1    0    0    -1  
$EndComp
$Comp
L Device:C C?
U 1 1 627B8070
P 5350 2600
AR Path="/627B8070" Ref="C?"  Part="1" 
AR Path="/627602B4/627B8070" Ref="C7"  Part="1" 
F 0 "C7" H 5468 2646 50  0000 L CNN
F 1 "100nF" H 5468 2555 50  0000 L CNN
F 2 "Capacitor_SMD:C_1206_3216Metric_Pad1.33x1.80mm_HandSolder" H 5388 2450 50  0001 C CNN
F 3 "~" H 5350 2600 50  0001 C CNN
	1    5350 2600
	1    0    0    -1  
$EndComp
Wire Wire Line
	5350 2450 5350 2350
Wire Wire Line
	4950 2450 4950 2350
$Comp
L DPsymbols:MQ-7 U?
U 1 1 627B8078
P 6000 5150
AR Path="/627B8078" Ref="U?"  Part="1" 
AR Path="/627602B4/627B8078" Ref="U7"  Part="1" 
F 0 "U7" H 6000 5731 50  0000 C CNN
F 1 "MQ-7" H 6000 5640 50  0000 C CNN
F 2 "Sensor:MQ-6" H 6050 4700 50  0001 C CNN
F 3 "" H 6000 5400 50  0001 C CNN
	1    6000 5150
	1    0    0    -1  
$EndComp
$Comp
L Driver_FET:MCP1416 U?
U 1 1 627B807E
P 4750 3300
AR Path="/627B807E" Ref="U?"  Part="1" 
AR Path="/627602B4/627B807E" Ref="U6"  Part="1" 
F 0 "U6" H 5150 3150 50  0000 L CNN
F 1 "MCP1416" H 4950 3000 50  0000 L CNN
F 2 "Package_TO_SOT_SMD:SOT-23-5" H 4750 2900 50  0001 C CIN
F 3 "http://ww1.microchip.com/downloads/en/DeviceDoc/20002092F.pdf" H 4550 3550 50  0001 C CNN
	1    4750 3300
	1    0    0    -1  
$EndComp
Wire Wire Line
	4950 2350 4750 2350
Wire Wire Line
	4950 2350 5350 2350
Connection ~ 4950 2350
$Comp
L power:GND #PWR?
U 1 1 627B8087
P 5150 2850
AR Path="/627B8087" Ref="#PWR?"  Part="1" 
AR Path="/627602B4/627B8087" Ref="#PWR0113"  Part="1" 
F 0 "#PWR0113" H 5150 2600 50  0001 C CNN
F 1 "GND" H 5155 2677 50  0000 C CNN
F 2 "" H 5150 2850 50  0001 C CNN
F 3 "" H 5150 2850 50  0001 C CNN
	1    5150 2850
	1    0    0    -1  
$EndComp
Wire Wire Line
	4950 2750 5150 2750
Wire Wire Line
	5150 2850 5150 2750
Connection ~ 5150 2750
Wire Wire Line
	5150 2750 5350 2750
$Comp
L power:GND #PWR?
U 1 1 627B8091
P 4750 3650
AR Path="/627B8091" Ref="#PWR?"  Part="1" 
AR Path="/627602B4/627B8091" Ref="#PWR0114"  Part="1" 
F 0 "#PWR0114" H 4750 3400 50  0001 C CNN
F 1 "GND" H 4755 3477 50  0000 C CNN
F 2 "" H 4750 3650 50  0001 C CNN
F 3 "" H 4750 3650 50  0001 C CNN
	1    4750 3650
	1    0    0    -1  
$EndComp
Wire Wire Line
	4750 3650 4750 3600
$Comp
L power:+5V #PWR?
U 1 1 627B8098
P 5500 5000
AR Path="/627B8098" Ref="#PWR?"  Part="1" 
AR Path="/627602B4/627B8098" Ref="#PWR0115"  Part="1" 
F 0 "#PWR0115" H 5500 4850 50  0001 C CNN
F 1 "+5V" H 5515 5173 50  0000 C CNN
F 2 "" H 5500 5000 50  0001 C CNN
F 3 "" H 5500 5000 50  0001 C CNN
	1    5500 5000
	1    0    0    -1  
$EndComp
$Comp
L DPsymbols:BS223 Q?
U 1 1 627B809E
P 5900 3300
AR Path="/627B809E" Ref="Q?"  Part="1" 
AR Path="/627602B4/627B809E" Ref="Q5"  Part="1" 
F 0 "Q5" H 5850 3000 50  0000 R CNN
F 1 "BS223" H 5850 3100 50  0000 R CNN
F 2 "Package_TO_SOT_SMD:SOT-323_SC-70_Handsoldering" H 6100 3225 50  0001 L CIN
F 3 "https://www.tme.eu/Document/03a3073db45564372f9fa5ba65525383/BSS223PWH6327XTSA1-dte.pdf" H 5900 3300 50  0001 L CNN
	1    5900 3300
	1    0    0    1   
$EndComp
Wire Wire Line
	5500 5000 5500 5050
Wire Wire Line
	5500 5250 5600 5250
Wire Wire Line
	5500 5050 5600 5050
Connection ~ 5500 5050
Wire Wire Line
	5500 5050 5500 5250
$Comp
L power:GND #PWR?
U 1 1 627B80A9
P 6000 5750
AR Path="/627B80A9" Ref="#PWR?"  Part="1" 
AR Path="/627602B4/627B80A9" Ref="#PWR0116"  Part="1" 
F 0 "#PWR0116" H 6000 5500 50  0001 C CNN
F 1 "GND" H 6005 5577 50  0000 C CNN
F 2 "" H 6000 5750 50  0001 C CNN
F 3 "" H 6000 5750 50  0001 C CNN
	1    6000 5750
	1    0    0    -1  
$EndComp
Wire Wire Line
	6000 5750 6000 5700
$Comp
L Device:R R?
U 1 1 627B80B0
P 6500 5500
AR Path="/627B80B0" Ref="R?"  Part="1" 
AR Path="/627602B4/627B80B0" Ref="R18"  Part="1" 
F 0 "R18" H 6570 5546 50  0000 L CNN
F 1 "10k" H 6570 5455 50  0000 L CNN
F 2 "Resistor_SMD:R_1206_3216Metric_Pad1.30x1.75mm_HandSolder" V 6430 5500 50  0001 C CNN
F 3 "~" H 6500 5500 50  0001 C CNN
	1    6500 5500
	1    0    0    -1  
$EndComp
Wire Wire Line
	6400 5050 6500 5050
Wire Wire Line
	6400 5250 6500 5250
Wire Wire Line
	6500 5050 6500 5250
Connection ~ 6500 5250
Wire Wire Line
	6500 5250 6500 5350
Wire Wire Line
	6000 5700 6500 5700
Wire Wire Line
	6500 5700 6500 5650
Connection ~ 6000 5700
Wire Wire Line
	6000 5700 6000 5550
Text GLabel 6500 4900 1    50   Output ~ 0
MQ7-MEASURE
Wire Wire Line
	6500 4900 6500 5050
Connection ~ 6500 5050
Connection ~ 5350 2350
Wire Wire Line
	5350 2350 6000 2350
Wire Wire Line
	6000 2350 6000 3100
Wire Wire Line
	5150 3300 5700 3300
Wire Wire Line
	4750 2350 4750 2900
Text GLabel 4300 2850 1    50   Input ~ 0
MQ7_ENABLE
Wire Wire Line
	4300 2850 4300 2900
Wire Wire Line
	4300 3300 4450 3300
$Comp
L Device:CP C?
U 1 1 627B80CA
P 5350 4150
AR Path="/627B80CA" Ref="C?"  Part="1" 
AR Path="/627602B4/627B80CA" Ref="C8"  Part="1" 
F 0 "C8" H 5468 4196 50  0000 L CNN
F 1 "1uF" H 5468 4105 50  0000 L CNN
F 2 "Capacitor_SMD:C_1206_3216Metric_Pad1.33x1.80mm_HandSolder" H 5388 4000 50  0001 C CNN
F 3 "~" H 5350 4150 50  0001 C CNN
	1    5350 4150
	1    0    0    -1  
$EndComp
$Comp
L Device:C C?
U 1 1 627B80D0
P 5750 4150
AR Path="/627B80D0" Ref="C?"  Part="1" 
AR Path="/627602B4/627B80D0" Ref="C9"  Part="1" 
F 0 "C9" H 5800 4250 50  0000 L CNN
F 1 "10nF" H 5750 4050 50  0000 L CNN
F 2 "Capacitor_SMD:C_1206_3216Metric_Pad1.33x1.80mm_HandSolder" H 5788 4000 50  0001 C CNN
F 3 "~" H 5750 4150 50  0001 C CNN
	1    5750 4150
	1    0    0    -1  
$EndComp
$Comp
L power:GND #PWR?
U 1 1 627B80D6
P 5550 4400
AR Path="/627B80D6" Ref="#PWR?"  Part="1" 
AR Path="/627602B4/627B80D6" Ref="#PWR0117"  Part="1" 
F 0 "#PWR0117" H 5550 4150 50  0001 C CNN
F 1 "GND" H 5555 4227 50  0000 C CNN
F 2 "" H 5550 4400 50  0001 C CNN
F 3 "" H 5550 4400 50  0001 C CNN
	1    5550 4400
	1    0    0    -1  
$EndComp
Wire Wire Line
	5350 4300 5550 4300
Wire Wire Line
	5550 4400 5550 4300
Connection ~ 5550 4300
Wire Wire Line
	5550 4300 5750 4300
$Comp
L Device:R R?
U 1 1 627B80E0
P 5750 3850
AR Path="/627B80E0" Ref="R?"  Part="1" 
AR Path="/627602B4/627B80E0" Ref="R17"  Part="1" 
F 0 "R17" H 5820 3896 50  0000 L CNN
F 1 "0" H 5820 3805 50  0000 L CNN
F 2 "Resistor_SMD:R_1206_3216Metric_Pad1.30x1.75mm_HandSolder" V 5680 3850 50  0001 C CNN
F 3 "~" H 5750 3850 50  0001 C CNN
	1    5750 3850
	1    0    0    -1  
$EndComp
Wire Wire Line
	5750 3700 5750 3650
Wire Wire Line
	6000 3650 6000 3500
Wire Wire Line
	6000 3650 6000 4750
Connection ~ 6000 3650
$Comp
L Device:R R?
U 1 1 627B80EA
P 5350 3850
AR Path="/627B80EA" Ref="R?"  Part="1" 
AR Path="/627602B4/627B80EA" Ref="R16"  Part="1" 
F 0 "R16" H 5420 3896 50  0000 L CNN
F 1 "0" H 5420 3805 50  0000 L CNN
F 2 "Resistor_SMD:R_1206_3216Metric_Pad1.30x1.75mm_HandSolder" V 5280 3850 50  0001 C CNN
F 3 "~" H 5350 3850 50  0001 C CNN
	1    5350 3850
	1    0    0    -1  
$EndComp
Wire Wire Line
	5350 3700 5350 3650
Wire Wire Line
	5350 3650 5750 3650
Connection ~ 5750 3650
Wire Wire Line
	5750 3650 6000 3650
Text GLabel 6450 3450 1    50   Output ~ 0
MQ7-POWER-MEASURE
Wire Wire Line
	6000 3650 6450 3650
Wire Wire Line
	6450 3650 6450 3450
$Comp
L Device:R R?
U 1 1 627B80F7
P 4550 2900
AR Path="/627B80F7" Ref="R?"  Part="1" 
AR Path="/627602B4/627B80F7" Ref="R15"  Part="1" 
F 0 "R15" H 4480 2854 50  0000 R CNN
F 1 "10k" H 4480 2945 50  0000 R CNN
F 2 "Resistor_SMD:R_1206_3216Metric_Pad1.30x1.75mm_HandSolder" V 4480 2900 50  0001 C CNN
F 3 "~" H 4550 2900 50  0001 C CNN
	1    4550 2900
	0    -1   -1   0   
$EndComp
Wire Wire Line
	4700 2900 4750 2900
Connection ~ 4750 2900
Wire Wire Line
	4750 2900 4750 3000
Wire Wire Line
	4400 2900 4300 2900
Connection ~ 4300 2900
Wire Wire Line
	4300 2900 4300 3300
Wire Wire Line
	5350 2250 5350 2350
$Comp
L power:+5V #PWR?
U 1 1 627B8104
P 5350 2250
AR Path="/627B8104" Ref="#PWR?"  Part="1" 
AR Path="/627602B4/627B8104" Ref="#PWR0118"  Part="1" 
F 0 "#PWR0118" H 5350 2100 50  0001 C CNN
F 1 "+5V" H 5365 2423 50  0000 C CNN
F 2 "" H 5350 2250 50  0001 C CNN
F 3 "" H 5350 2250 50  0001 C CNN
	1    5350 2250
	1    0    0    -1  
$EndComp
$Comp
L power:+5V #PWR?
U 1 1 627CCCBB
P 2750 4750
AR Path="/627CCCBB" Ref="#PWR?"  Part="1" 
AR Path="/627602B4/627CCCBB" Ref="#PWR0119"  Part="1" 
F 0 "#PWR0119" H 2750 4600 50  0001 C CNN
F 1 "+5V" H 2765 4923 50  0000 C CNN
F 2 "" H 2750 4750 50  0001 C CNN
F 3 "" H 2750 4750 50  0001 C CNN
	1    2750 4750
	1    0    0    -1  
$EndComp
$Comp
L power:+5V #PWR?
U 1 1 627CCCC1
P 2250 5850
AR Path="/627CCCC1" Ref="#PWR?"  Part="1" 
AR Path="/627602B4/627CCCC1" Ref="#PWR0120"  Part="1" 
F 0 "#PWR0120" H 2250 5700 50  0001 C CNN
F 1 "+5V" H 2265 6023 50  0000 C CNN
F 2 "" H 2250 5850 50  0001 C CNN
F 3 "" H 2250 5850 50  0001 C CNN
	1    2250 5850
	1    0    0    -1  
$EndComp
Wire Wire Line
	2750 5050 2750 4800
Wire Wire Line
	2750 5450 2750 5600
Wire Wire Line
	1850 5250 2050 5250
Text GLabel 1850 5150 1    50   Input ~ 0
MQ2_ENABLE
$Comp
L DPsymbols:BS223 Q?
U 1 1 627CCCCB
P 2650 5250
AR Path="/627CCCCB" Ref="Q?"  Part="1" 
AR Path="/627602B4/627CCCCB" Ref="Q4"  Part="1" 
F 0 "Q4" H 2422 5204 50  0000 R CNN
F 1 "BS223" H 2422 5295 50  0000 R CNN
F 2 "Package_TO_SOT_SMD:SOT-323_SC-70_Handsoldering" H 2850 5175 50  0001 L CIN
F 3 "https://www.tme.eu/Document/03a3073db45564372f9fa5ba65525383/BSS223PWH6327XTSA1-dte.pdf" H 2650 5250 50  0001 L CNN
	1    2650 5250
	1    0    0    1   
$EndComp
$Comp
L DPsymbols:MQ-2 U?
U 1 1 627CCCD1
P 2750 6000
AR Path="/627CCCD1" Ref="U?"  Part="1" 
AR Path="/627602B4/627CCCD1" Ref="U5"  Part="1" 
F 0 "U5" H 3000 6600 50  0000 C CNN
F 1 "MQ-2" H 3050 6500 50  0000 C CNN
F 2 "Sensor:MQ-6" H 2800 5550 50  0001 C CNN
F 3 "" H 2750 6250 50  0001 C CNN
	1    2750 6000
	1    0    0    -1  
$EndComp
Wire Wire Line
	1850 5250 1850 5150
Wire Wire Line
	2250 5850 2250 5900
Wire Wire Line
	2250 6100 2350 6100
Wire Wire Line
	2250 5900 2350 5900
Connection ~ 2250 5900
Wire Wire Line
	2250 5900 2250 6100
$Comp
L power:GND #PWR?
U 1 1 627CCCDD
P 2750 6600
AR Path="/627CCCDD" Ref="#PWR?"  Part="1" 
AR Path="/627602B4/627CCCDD" Ref="#PWR0121"  Part="1" 
F 0 "#PWR0121" H 2750 6350 50  0001 C CNN
F 1 "GND" H 2755 6427 50  0000 C CNN
F 2 "" H 2750 6600 50  0001 C CNN
F 3 "" H 2750 6600 50  0001 C CNN
	1    2750 6600
	1    0    0    -1  
$EndComp
Wire Wire Line
	2750 6600 2750 6550
$Comp
L Device:R R?
U 1 1 627CCCE4
P 3250 6350
AR Path="/627CCCE4" Ref="R?"  Part="1" 
AR Path="/627602B4/627CCCE4" Ref="R12"  Part="1" 
F 0 "R12" H 3320 6396 50  0000 L CNN
F 1 "10k" H 3320 6305 50  0000 L CNN
F 2 "Resistor_SMD:R_1206_3216Metric_Pad1.30x1.75mm_HandSolder" V 3180 6350 50  0001 C CNN
F 3 "~" H 3250 6350 50  0001 C CNN
	1    3250 6350
	1    0    0    -1  
$EndComp
Wire Wire Line
	3150 5900 3250 5900
Wire Wire Line
	3150 6100 3250 6100
Wire Wire Line
	3250 5900 3250 6100
Connection ~ 3250 6100
Wire Wire Line
	3250 6100 3250 6200
Wire Wire Line
	2750 6550 3250 6550
Wire Wire Line
	3250 6550 3250 6500
Connection ~ 2750 6550
Wire Wire Line
	2750 6550 2750 6400
Text GLabel 3250 5750 1    50   Output ~ 0
MQ2-MEASURE
Wire Wire Line
	3250 5750 3250 5900
Connection ~ 3250 5900
$Comp
L Device:R R?
U 1 1 627CCCF6
P 2050 5000
AR Path="/627CCCF6" Ref="R?"  Part="1" 
AR Path="/627602B4/627CCCF6" Ref="R11"  Part="1" 
F 0 "R11" H 1980 4954 50  0000 R CNN
F 1 "10k" H 1980 5045 50  0000 R CNN
F 2 "Resistor_SMD:R_1206_3216Metric_Pad1.30x1.75mm_HandSolder" V 1980 5000 50  0001 C CNN
F 3 "~" H 2050 5000 50  0001 C CNN
	1    2050 5000
	-1   0    0    1   
$EndComp
Wire Wire Line
	2050 4850 2050 4800
Wire Wire Line
	2050 4800 2750 4800
Connection ~ 2750 4800
Wire Wire Line
	2750 4800 2750 4750
Wire Wire Line
	2050 5150 2050 5250
Connection ~ 2050 5250
Wire Wire Line
	2050 5250 2450 5250
$Comp
L Sensor:DHT11 U?
U 1 1 62804F4F
P 8700 3700
AR Path="/62804F4F" Ref="U?"  Part="1" 
AR Path="/627602B4/62804F4F" Ref="U8"  Part="1" 
F 0 "U8" H 8456 3746 50  0000 R CNN
F 1 "DHT11" H 8456 3655 50  0000 R CNN
F 2 "Sensor:Aosong_DHT11_5.5x12.0_P2.54mm" H 8700 3300 50  0001 C CNN
F 3 "http://akizukidenshi.com/download/ds/aosong/DHT11.pdf" H 8850 3950 50  0001 C CNN
	1    8700 3700
	1    0    0    -1  
$EndComp
$Comp
L power:+5V #PWR?
U 1 1 62804F55
P 8700 3150
AR Path="/62804F55" Ref="#PWR?"  Part="1" 
AR Path="/627602B4/62804F55" Ref="#PWR0122"  Part="1" 
F 0 "#PWR0122" H 8700 3000 50  0001 C CNN
F 1 "+5V" H 8715 3323 50  0000 C CNN
F 2 "" H 8700 3150 50  0001 C CNN
F 3 "" H 8700 3150 50  0001 C CNN
	1    8700 3150
	1    0    0    -1  
$EndComp
$Comp
L Device:C C?
U 1 1 62804F5B
P 8150 3450
AR Path="/62804F5B" Ref="C?"  Part="1" 
AR Path="/627602B4/62804F5B" Ref="C11"  Part="1" 
F 0 "C11" H 8268 3496 50  0000 L CNN
F 1 "100nF" H 8268 3405 50  0000 L CNN
F 2 "Capacitor_SMD:C_1206_3216Metric_Pad1.33x1.80mm_HandSolder" H 8188 3300 50  0001 C CNN
F 3 "~" H 8150 3450 50  0001 C CNN
	1    8150 3450
	1    0    0    -1  
$EndComp
$Comp
L power:GND #PWR?
U 1 1 62804F61
P 8150 4150
AR Path="/62804F61" Ref="#PWR?"  Part="1" 
AR Path="/627602B4/62804F61" Ref="#PWR0123"  Part="1" 
F 0 "#PWR0123" H 8150 3900 50  0001 C CNN
F 1 "GND" H 8300 4100 50  0000 C CNN
F 2 "" H 8150 4150 50  0001 C CNN
F 3 "" H 8150 4150 50  0001 C CNN
	1    8150 4150
	1    0    0    -1  
$EndComp
Wire Wire Line
	8150 4150 8150 4050
Wire Wire Line
	8700 3300 8700 3150
Wire Wire Line
	8700 3400 8700 3300
Connection ~ 8700 3300
$Comp
L Device:R R?
U 1 1 62804F6B
P 9200 3500
AR Path="/62804F6B" Ref="R?"  Part="1" 
AR Path="/627602B4/62804F6B" Ref="R19"  Part="1" 
F 0 "R19" H 9130 3454 50  0000 R CNN
F 1 "5k" H 9130 3545 50  0000 R CNN
F 2 "Resistor_SMD:R_1206_3216Metric_Pad1.30x1.75mm_HandSolder" V 9130 3500 50  0001 C CNN
F 3 "~" H 9200 3500 50  0001 C CNN
	1    9200 3500
	1    0    0    -1  
$EndComp
Text GLabel 9400 3700 2    50   BiDi ~ 0
DHT11_DATA
Wire Wire Line
	8700 4000 8700 4050
Wire Wire Line
	8700 4050 8150 4050
Connection ~ 8150 4050
Wire Wire Line
	8150 4050 8150 3600
Wire Wire Line
	9200 3650 9200 3700
Wire Wire Line
	9200 3700 9400 3700
Wire Wire Line
	9000 3700 9200 3700
Connection ~ 9200 3700
Wire Wire Line
	9200 3300 9200 3350
Wire Wire Line
	8700 3300 9200 3300
Wire Wire Line
	8150 3300 8700 3300
$EndSCHEMATC
