EESchema Schematic File Version 4
EELAYER 30 0
EELAYER END
$Descr A4 11693 8268
encoding utf-8
Sheet 3 4
Title ""
Date ""
Rev ""
Comp ""
Comment1 ""
Comment2 ""
Comment3 ""
Comment4 ""
$EndDescr
Wire Wire Line
	2800 2700 2250 2700
Wire Wire Line
	2800 2800 2250 2800
Wire Wire Line
	2250 2800 2250 2700
Connection ~ 2250 2700
Wire Wire Line
	2800 2900 2250 2900
Connection ~ 2250 2800
$Comp
L Device:R 10k?
U 1 1 625F1C2C
P 2450 3000
AR Path="/625F1C2C" Ref="10k?"  Part="1" 
AR Path="/625C166C/625F1C2C" Ref="R27"  Part="1" 
F 0 "R27" V 2650 3000 50  0000 C CNN
F 1 "10k" V 2550 3000 50  0000 C CNN
F 2 "Resistor_SMD:R_1206_3216Metric_Pad1.30x1.75mm_HandSolder" V 2380 3000 50  0001 C CNN
F 3 "~" H 2450 3000 50  0001 C CNN
	1    2450 3000
	0    1    1    0   
$EndComp
$Comp
L Switch:SW_Push SW?
U 1 1 625F1C32
P 2450 3650
AR Path="/625F1C32" Ref="SW?"  Part="1" 
AR Path="/625C166C/625F1C32" Ref="SW1"  Part="1" 
F 0 "SW1" H 2450 3935 50  0000 C CNN
F 1 "SW_Push" H 2450 3844 50  0000 C CNN
F 2 "Button_Switch_THT:SW_PUSH_6mm" H 2450 3850 50  0001 C CNN
F 3 "~" H 2450 3850 50  0001 C CNN
	1    2450 3650
	1    0    0    -1  
$EndComp
Wire Wire Line
	2600 3000 2700 3000
Wire Wire Line
	2300 3000 2250 3000
Wire Wire Line
	2250 2800 2250 2900
Connection ~ 2250 2900
Wire Wire Line
	2250 2900 2250 3000
$Comp
L power:GND #PWR?
U 1 1 625F1C3D
P 2200 3750
AR Path="/625F1C3D" Ref="#PWR?"  Part="1" 
AR Path="/625C166C/625F1C3D" Ref="#PWR0104"  Part="1" 
F 0 "#PWR0104" H 2200 3500 50  0001 C CNN
F 1 "GND" H 2205 3577 50  0000 C CNN
F 2 "" H 2200 3750 50  0001 C CNN
F 3 "" H 2200 3750 50  0001 C CNN
	1    2200 3750
	1    0    0    -1  
$EndComp
Wire Wire Line
	2200 3650 2250 3650
Wire Wire Line
	2650 3650 2700 3650
Wire Wire Line
	2700 3650 2700 3000
Connection ~ 2700 3000
Wire Wire Line
	2700 3000 2800 3000
$Comp
L power:GND #PWR?
U 1 1 625F1C48
P 3200 3750
AR Path="/625F1C48" Ref="#PWR?"  Part="1" 
AR Path="/625C166C/625F1C48" Ref="#PWR0105"  Part="1" 
F 0 "#PWR0105" H 3200 3500 50  0001 C CNN
F 1 "GND" H 3205 3577 50  0000 C CNN
F 2 "" H 3200 3750 50  0001 C CNN
F 3 "" H 3200 3750 50  0001 C CNN
	1    3200 3750
	1    0    0    -1  
$EndComp
Wire Wire Line
	3200 3750 3200 3600
Wire Wire Line
	3200 3600 3300 3600
Wire Wire Line
	3300 3600 3300 3500
Connection ~ 3200 3600
Wire Wire Line
	3200 3600 3200 3500
Wire Wire Line
	3300 3600 3400 3600
Wire Wire Line
	3400 3600 3400 3500
Connection ~ 3300 3600
Wire Wire Line
	3800 2550 4000 2550
$Comp
L DPsymbols:WT8266-S2 U?
U 1 1 625F1C57
P 3300 2850
AR Path="/625F1C57" Ref="U?"  Part="1" 
AR Path="/625C166C/625F1C57" Ref="U1"  Part="1" 
F 0 "U1" H 2850 3750 50  0000 C CNN
F 1 "WT8266-S2" H 2900 3600 50  0000 C CNN
F 2 "DPfootprints:WT8266-S2" H 3300 2900 50  0001 C CNN
F 3 "" H 3300 2900 50  0001 C CNN
	1    3300 2850
	1    0    0    -1  
$EndComp
$Comp
L power:GND #PWR?
U 1 1 625F1C5D
P 4000 3200
AR Path="/625F1C5D" Ref="#PWR?"  Part="1" 
AR Path="/625C166C/625F1C5D" Ref="#PWR0106"  Part="1" 
F 0 "#PWR0106" H 4000 2950 50  0001 C CNN
F 1 "GND" H 4005 3027 50  0000 C CNN
F 2 "" H 4000 3200 50  0001 C CNN
F 3 "" H 4000 3200 50  0001 C CNN
	1    4000 3200
	1    0    0    -1  
$EndComp
Wire Wire Line
	3800 3150 4000 3150
Wire Wire Line
	4000 3150 4000 3200
$Comp
L power:+3V3 #PWR?
U 1 1 625F1C65
P 2250 2600
AR Path="/625F1C65" Ref="#PWR?"  Part="1" 
AR Path="/625C166C/625F1C65" Ref="#PWR0107"  Part="1" 
F 0 "#PWR0107" H 2250 2450 50  0001 C CNN
F 1 "+3V3" H 2265 2773 50  0000 C CNN
F 2 "" H 2250 2600 50  0001 C CNN
F 3 "" H 2250 2600 50  0001 C CNN
	1    2250 2600
	1    0    0    -1  
$EndComp
$Comp
L power:+3V3 #PWR?
U 1 1 625F1C6B
P 4000 1650
AR Path="/625F1C6B" Ref="#PWR?"  Part="1" 
AR Path="/625C166C/625F1C6B" Ref="#PWR0108"  Part="1" 
F 0 "#PWR0108" H 4000 1500 50  0001 C CNN
F 1 "+3V3" H 4015 1823 50  0000 C CNN
F 2 "" H 4000 1650 50  0001 C CNN
F 3 "" H 4000 1650 50  0001 C CNN
	1    4000 1650
	1    0    0    -1  
$EndComp
Wire Wire Line
	2250 2600 2250 2700
Text GLabel 3350 2050 1    50   Output ~ 0
ESP_UART_TX
Text GLabel 3250 2050 1    50   Input ~ 0
ESP_UART_RX
Wire Wire Line
	3250 2200 3250 2050
Text GLabel 4100 2550 1    50   Output ~ 0
ESP_STATUS
Wire Wire Line
	3800 2450 3850 2450
Wire Wire Line
	3850 2450 3850 2200
$Comp
L Device:R 10k?
U 1 1 625F1C78
P 3850 1900
AR Path="/625F1C78" Ref="10k?"  Part="1" 
AR Path="/625C166C/625F1C78" Ref="R28"  Part="1" 
F 0 "R28" V 4050 1900 50  0000 C CNN
F 1 "10k" V 3950 1900 50  0000 C CNN
F 2 "Resistor_SMD:R_1206_3216Metric_Pad1.30x1.75mm_HandSolder" V 3780 1900 50  0001 C CNN
F 3 "~" H 3850 1900 50  0001 C CNN
	1    3850 1900
	-1   0    0    1   
$EndComp
Wire Wire Line
	3850 1750 3850 1700
Wire Wire Line
	3850 1700 4000 1700
Wire Wire Line
	4000 1650 4000 1700
Connection ~ 4000 1700
Wire Wire Line
	4000 1700 4000 2550
Text GLabel 3550 2150 1    50   Input ~ 0
ESP_UART_MODE
Wire Wire Line
	3550 2150 3550 2200
Wire Wire Line
	3550 2200 3850 2200
Connection ~ 3850 2200
Wire Wire Line
	3850 2200 3850 2050
Wire Wire Line
	3800 2650 4100 2650
Wire Wire Line
	4100 2650 4100 2550
Wire Wire Line
	2200 3750 2200 3650
Wire Wire Line
	3350 2050 3350 2200
$Comp
L power:GND #PWR?
U 1 1 6263180D
P 6000 4050
AR Path="/6263180D" Ref="#PWR?"  Part="1" 
AR Path="/625C166C/6263180D" Ref="#PWR0109"  Part="1" 
F 0 "#PWR0109" H 6000 3800 50  0001 C CNN
F 1 "GND" H 6005 3877 50  0000 C CNN
F 2 "" H 6000 4050 50  0001 C CNN
F 3 "" H 6000 4050 50  0001 C CNN
	1    6000 4050
	1    0    0    -1  
$EndComp
$Comp
L Regulator_Linear:L78L33_SO8 U?
U 1 1 62631813
P 6550 5150
AR Path="/62631813" Ref="U?"  Part="1" 
AR Path="/625C166C/62631813" Ref="U4"  Part="1" 
F 0 "U4" H 6550 5392 50  0000 C CNN
F 1 "L78L33_SO8" H 6550 5301 50  0000 C CNN
F 2 "Package_SO:SOIC-8_3.9x4.9mm_P1.27mm" H 6650 5350 50  0001 C CIN
F 3 "http://www.st.com/content/ccc/resource/technical/document/datasheet/15/55/e5/aa/23/5b/43/fd/CD00000446.pdf/files/CD00000446.pdf/jcr:content/translations/en.CD00000446.pdf" H 6750 5150 50  0001 C CNN
	1    6550 5150
	1    0    0    -1  
$EndComp
$Comp
L Jumper:SolderJumper_2_Bridged JP?
U 1 1 62631819
P 5800 3800
AR Path="/62631819" Ref="JP?"  Part="1" 
AR Path="/625C166C/62631819" Ref="JP4"  Part="1" 
F 0 "JP4" V 5846 3712 50  0000 R CNN
F 1 "SolderJumper_2_Bridged" V 5755 3712 50  0000 R CNN
F 2 "Jumper:SolderJumper-2_P1.3mm_Open_Pad1.0x1.5mm" H 5800 3800 50  0001 C CNN
F 3 "~" H 5800 3800 50  0001 C CNN
	1    5800 3800
	0    -1   -1   0   
$EndComp
$Comp
L Device:C C?
U 1 1 6263181F
P 7000 5400
AR Path="/6263181F" Ref="C?"  Part="1" 
AR Path="/625C166C/6263181F" Ref="C3"  Part="1" 
F 0 "C3" H 7118 5446 50  0000 L CNN
F 1 "100nF" H 7118 5355 50  0000 L CNN
F 2 "Capacitor_SMD:C_1206_3216Metric_Pad1.33x1.80mm_HandSolder" H 7038 5250 50  0001 C CNN
F 3 "~" H 7000 5400 50  0001 C CNN
	1    7000 5400
	1    0    0    -1  
$EndComp
$Comp
L Device:C C?
U 1 1 62631825
P 6050 5400
AR Path="/62631825" Ref="C?"  Part="1" 
AR Path="/625C166C/62631825" Ref="C2"  Part="1" 
F 0 "C2" H 6168 5446 50  0000 L CNN
F 1 "330nF" H 6168 5355 50  0000 L CNN
F 2 "Capacitor_SMD:C_1206_3216Metric_Pad1.33x1.80mm_HandSolder" H 6088 5250 50  0001 C CNN
F 3 "~" H 6050 5400 50  0001 C CNN
	1    6050 5400
	1    0    0    -1  
$EndComp
$Comp
L power:GND #PWR?
U 1 1 6263182B
P 6550 5750
AR Path="/6263182B" Ref="#PWR?"  Part="1" 
AR Path="/625C166C/6263182B" Ref="#PWR0110"  Part="1" 
F 0 "#PWR0110" H 6550 5500 50  0001 C CNN
F 1 "GND" H 6555 5577 50  0000 C CNN
F 2 "" H 6550 5750 50  0001 C CNN
F 3 "" H 6550 5750 50  0001 C CNN
	1    6550 5750
	1    0    0    -1  
$EndComp
$Comp
L power:+3V3 #PWR?
U 1 1 62631831
P 7000 5050
AR Path="/62631831" Ref="#PWR?"  Part="1" 
AR Path="/625C166C/62631831" Ref="#PWR0111"  Part="1" 
F 0 "#PWR0111" H 7000 4900 50  0001 C CNN
F 1 "+3V3" H 7015 5223 50  0000 C CNN
F 2 "" H 7000 5050 50  0001 C CNN
F 3 "" H 7000 5050 50  0001 C CNN
	1    7000 5050
	1    0    0    -1  
$EndComp
Wire Wire Line
	7000 5550 7000 5600
Wire Wire Line
	7000 5600 6550 5600
Wire Wire Line
	6050 5600 6050 5550
Wire Wire Line
	6550 5750 6550 5600
Connection ~ 6550 5600
Wire Wire Line
	6550 5600 6050 5600
Wire Wire Line
	6550 5450 6550 5600
Wire Wire Line
	6050 5250 6050 5150
Wire Wire Line
	6050 5150 6250 5150
Connection ~ 6050 5150
Wire Wire Line
	7000 5150 7000 5050
Wire Wire Line
	7000 5250 7000 5150
Connection ~ 7000 5150
Wire Wire Line
	6850 5150 7000 5150
Wire Wire Line
	6050 4900 6050 5150
$Comp
L Device:D_x2_KCom_AKA D?
U 1 1 62631846
P 6150 4400
AR Path="/62631846" Ref="D?"  Part="1" 
AR Path="/625C166C/62631846" Ref="D3"  Part="1" 
F 0 "D3" H 6150 4617 50  0000 C CNN
F 1 "D_x2_KCom_AKA" H 6150 4526 50  0000 C CNN
F 2 "Package_TO_SOT_SMD:TO-263-3_TabPin2" H 6150 4400 50  0001 C CNN
F 3 "~" H 6150 4400 50  0001 C CNN
	1    6150 4400
	1    0    0    -1  
$EndComp
Wire Wire Line
	5850 4400 5800 4400
Wire Wire Line
	5800 4400 5800 3950
$Comp
L power:+5V #PWR?
U 1 1 6263184E
P 5800 3550
AR Path="/6263184E" Ref="#PWR?"  Part="1" 
AR Path="/625C166C/6263184E" Ref="#PWR0112"  Part="1" 
F 0 "#PWR0112" H 5800 3400 50  0001 C CNN
F 1 "+5V" H 5815 3723 50  0000 C CNN
F 2 "" H 5800 3550 50  0001 C CNN
F 3 "" H 5800 3550 50  0001 C CNN
	1    5800 3550
	1    0    0    -1  
$EndComp
Wire Wire Line
	5800 3650 5800 3550
Text GLabel 6900 4200 1    50   Input ~ 0
ESP_PROGRAM_SUPPLY
Wire Wire Line
	6900 4200 6900 4400
Wire Wire Line
	6900 4400 6450 4400
Wire Wire Line
	6050 4900 6150 4900
Wire Wire Line
	6150 4900 6150 4600
Wire Wire Line
	3550 1750 3550 1250
Wire Wire Line
	3550 1250 3000 1250
Wire Wire Line
	5950 4800 5950 4900
Wire Wire Line
	5950 4900 6050 4900
Connection ~ 6050 4900
$Comp
L power:PWR_FLAG #FLG0103
U 1 1 6294EF21
P 5950 4800
F 0 "#FLG0103" H 5950 4875 50  0001 C CNN
F 1 "PWR_FLAG" H 5950 4973 50  0000 C CNN
F 2 "" H 5950 4800 50  0001 C CNN
F 3 "~" H 5950 4800 50  0001 C CNN
	1    5950 4800
	1    0    0    -1  
$EndComp
NoConn ~ 3800 3250
NoConn ~ 3800 3050
NoConn ~ 3800 2950
NoConn ~ 3800 2850
NoConn ~ 3800 2750
$EndSCHEMATC
